…
## Data Frame Methods

Modern R is all about data frames, so using them in network analysis
should be easy.

`tibble`s are the focus as the `statnet` suite has already begun
importing the `tidyverse`.

``` r
crisis_in_cloister %>% 
  vrt_as_df()
```

    #> # A tibble: 25 x 3
    #>    .vrt_id .vrt_name   cloisterville
    #>      <int> <chr>       <lgl>        
    #>  1       1 Leo         TRUE         
    #>  2       2 Arsenius    TRUE         
    #>  3       3 Bruno       TRUE         
    #>  4       4 Thomas      TRUE         
    #>  5       5 Bartholomew TRUE         
    #>  6       6 John Bosco  FALSE        
    #>  7       7 Gregory     FALSE        
    #>  8       8 Basil       FALSE        
    #>  9       9 Martin      TRUE         
    #> 10      10 Peter       TRUE         
    #> # ... with 15 more rows

``` r
crisis_in_cloister %>% 
  edg_as_df()
```

    #> # A tibble: 401 x 5
    #>    .edg_id  .ego .alter affect  time
    #>      <int> <int>  <int>  <int> <int>
    #>  1       1     6      7      2     3
    #>  2       2     6      7     -2     4
    #>  3       3     6      8      2     2
    #>  4       4     6      8      3     4
    #>  5       5     6     10     -2     3
    #>  6       6     6     11      1     3
    #>  7       7     6     11      3     2
    #>  8       8     6     12     -2     2
    #>  9       9     6     13     -1     2
    #> 10      10     6     13     -3     4
    #> # ... with 391 more rows
…
