…
vrt_get_attrs(southern_women_ig)
#> # A tibble: 32 x 2
#>    type  name 
#>  * <lgl> <chr>
#>  1 FALSE E1   
#>  2 FALSE E2   
#>  3 FALSE E3   
#>  4 FALSE E4   
#>  5 FALSE E5   
#>  6 FALSE E6   
#>  7 FALSE E7   
#>  8 FALSE E8   
#>  9 FALSE E9   
#> 10 FALSE E10  
#> # ... with 22 more rows
…
## using `actor_type` to specify bipartite mapping ====================================

sw_transposed <- t(southern_women_matrix)

southern_women_with_actors_false <- igraph::graph_from_incidence_matrix(sw_transposed)

vrt_get_attrs(southern_women_with_actors_false)
#> # A tibble: 32 x 2
#>    type  name     
#>  * <lgl> <chr>    
#>  1 FALSE EVELYN   
#>  2 FALSE LAURA    
#>  3 FALSE THERESA  
#>  4 FALSE BRENDA   
#>  5 FALSE CHARLOTTE
#>  6 FALSE FRANCES  
#>  7 FALSE ELEANOR  
#>  8 FALSE PEARL    
#>  9 FALSE RUTH     
#> 10 FALSE VERNE    
#> # ... with 22 more rows
…
