Davis' Southern Women — davis_southern_women • snatools
…
davis_southern_women
#> $directed
#> [1] FALSE
#> 
#> $bipartite
#> [1] TRUE
#> 
#> $multiple
#> [1] FALSE
#> 
#> $loops
#> [1] FALSE
#> 
#> $edges
#> # A tibble: 93 x 2
#>    from   to   
#>  * <chr>  <chr>
#>  1 EVELYN E1   
#>  2 EVELYN E2   
#>  3 EVELYN E3   
#>  4 EVELYN E4   
#>  5 EVELYN E5   
#>  6 EVELYN E6   
#>  7 EVELYN E8   
#>  8 EVELYN E9   
#>  9 LAURA  E1   
#> 10 LAURA  E2   
#> # ... with 83 more rows
#> 
#> $vertices
#> # A tibble: 32 x 2
#>    name      type 
#>  * <chr>     <lgl>
#>  1 EVELYN    TRUE 
#>  2 LAURA     TRUE 
#>  3 THERESA   TRUE 
#>  4 BRENDA    TRUE 
#>  5 CHARLOTTE TRUE 
#>  6 FRANCES   TRUE 
#>  7 ELEANOR   TRUE 
#>  8 PEARL     TRUE 
#>  9 RUTH      TRUE 
#> 10 VERNE     TRUE 
#> # ... with 22 more rows
…
