Extract Vertex Attributes — vrt_get_attrs • snatools
…
vrt_get_attrs_df(ig)
#> # A tibble: 34 x 4
#>    Faction name     label color
#>      <dbl> <chr>    <chr> <dbl>
#>  1       1 Mr Hi    H         1
#>  2       1 Actor 2  2         1
#>  3       1 Actor 3  3         1
#>  4       1 Actor 4  4         1
#>  5       1 Actor 5  5         1
#>  6       1 Actor 6  6         1
#>  7       1 Actor 7  7         1
#>  8       1 Actor 8  8         1
#>  9       2 Actor 9  9         2
#> 10       2 Actor 10 10        2
#> # ... with 24 more rows
…
