Edge Attributes — edg_get_attrs • snatools
…
edg_get_attrs_df(ig)
#> # A tibble: 125,409 x 6
#>     from    to Time                Reciptype Topic LDC_topic
#>    <dbl> <dbl> <chr>               <chr>     <int>     <int>
#>  1    25   154 1979-12-31 21:00:00 to            1         0
#>  2    25   154 1979-12-31 21:00:00 to            1        -1
#>  3    30    30 1979-12-31 21:00:00 cc            3        -1
#>  4    30    30 1979-12-31 21:00:00 cc            3        -1
#>  5    30    30 1979-12-31 21:00:00 bcc           3        -1
#>  6    30    30 1979-12-31 21:00:00 bcc           3        -1
#>  7    39    39 1979-12-31 21:00:00 to            3        -1
#>  8    52    67 1979-12-31 21:00:00 to            1         0
#>  9    52    67 1979-12-31 21:00:00 to            1         0
#> 10    52    67 1979-12-31 21:00:00 to            3         0
#> # ... with 125,399 more rows
edg_get_attrs_df(nw)
#> # A tibble: 88 x 3
#>    from        to          nominations
#>    <chr>       <chr>             <dbl>
#>  1 Bonaventure John Bosco            1
#>  2 Mark        John Bosco            1
#>  3 John Bosco  Gregory               1
#>  4 Basil       Gregory               1
#>  5 Winfrid     Gregory               3
#>  6 Boniface    Gregory               3
#>  7 John Bosco  Basil                 2
#>  8 Bonaventure Peter                 3
#>  9 John Bosco  Bonaventure           2
#> 10 Peter       Bonaventure           3
#> # ... with 78 more rows
…
