Read UCINET's .dl files — read_ucinet • snatools
…
  read_ucinet()
#> $directed
#> [1] TRUE
#> 
#> $bipartite
#> [1] FALSE
#> 
#> $multiple
#> [1] TRUE
#> 
#> $loops
#> [1] FALSE
#> 
#> $edges
#> # A tibble: 510 x 4
#>    from      to        weight level  
#>  * <chr>     <chr>      <dbl> <chr>  
#>  1 ROMUL_10  AMBROSE_9      2 SAMPLK1
#>  2 ROMUL_10  PETER_4        3 SAMPLK1
#>  3 ROMUL_10  ALBERT_16      1 SAMPLK1
#>  4 BONAVEN_5 ROMUL_10       3 SAMPLK1
#>  5 BONAVEN_5 VICTOR_8       2 SAMPLK1
#>  6 BONAVEN_5 ALBERT_16      1 SAMPLK1
#>  7 AMBROSE_9 ROMUL_10       2 SAMPLK1
#>  8 AMBROSE_9 BONAVEN_5      3 SAMPLK1
#>  9 AMBROSE_9 ELIAS_17       1 SAMPLK1
#> 10 BERTH_6   PETER_4        3 SAMPLK1
#> # ... with 500 more rows
…
