Sampson's Monastery — sampson_monastery • snatools
…
sampson_monastery
#> $directed
#> [1] TRUE
#> 
#> $bipartite
#> [1] FALSE
#> 
#> $multiple
#> [1] TRUE
#> 
#> $loops
#> [1] FALSE
#> 
#> $edges
#> # A tibble: 510 x 6
#>    from        to          weight relation  time positive_relation
#>    <chr>       <chr>        <dbl> <chr>    <int> <lgl>            
#>  1 Romauld     Ambrose          2 liking       1 TRUE             
#>  2 Romauld     Peter            3 liking       1 TRUE             
#>  3 Romauld     Albert           1 liking       1 TRUE             
#>  4 Bonaventure Romauld          3 liking       1 TRUE             
#>  5 Bonaventure Victor           2 liking       1 TRUE             
#>  6 Bonaventure Albert           1 liking       1 TRUE             
#>  7 Ambrose     Romauld          2 liking       1 TRUE             
#>  8 Ambrose     Bonaventure      3 liking       1 TRUE             
#>  9 Ambrose     Elias            1 liking       1 TRUE             
#> 10 Berthold    Peter            3 liking       1 TRUE             
#> # ... with 500 more rows
…
